Zaawansowane metody uczenia maszynowego - 5 DNN dla danych sekwencyjnych
…
Na początek pobierzemy dane z serwera https://s3.amazonaws.com/keras-datasets/jena_climate_2009_2016.csv.zip i rozpakujemy.

Kod
url <-
 "https://s3.amazonaws.com/keras-datasets/jena_climate_2009_2016.csv.zip"
download.file(url, destfile = basename(url))
zip::unzip(zipfile = "jena_climate_2009_2016.csv.zip",
          files = "jena_climate_2009_2016.csv")

Kod
full_df <- readr::read_csv("jena_climate_2009_2016.csv")
full_df

# A tibble: 420,451 × 15
   `Date Time`         `p (mbar)` `T (degC)` `Tpot (K)` `Tdew (degC)` `rh (%)`
   <chr>                    <dbl>      <dbl>      <dbl>         <dbl>    <dbl>
 1 01.01.2009 00:10:00       997.      -8.02       265.         -8.9      93.3
 2 01.01.2009 00:20:00       997.      -8.41       265.         -9.28     93.4
 3 01.01.2009 00:30:00       997.      -8.51       265.         -9.31     93.9
 4 01.01.2009 00:40:00       997.      -8.31       265.         -9.07     94.2
 5 01.01.2009 00:50:00       997.      -8.27       265.         -9.04     94.1
 6 01.01.2009 01:00:00       996.      -8.05       265.         -8.78     94.4
 7 01.01.2009 01:10:00       996.      -7.62       266.         -8.3      94.8
 8 01.01.2009 01:20:00       996.      -7.62       266.         -8.36     94.4
 9 01.01.2009 01:30:00       996.      -7.91       266.         -8.73     93.8
10 01.01.2009 01:40:00       997.      -8.43       265.         -9.34     93.1
# ℹ 420,441 more rows
# ℹ 9 more variables: `VPmax (mbar)` <dbl>, `VPact (mbar)` <dbl>,
#   `VPdef (mbar)` <dbl>, `sh (g/kg)` <dbl>, `H2OC (mmol/mol)` <dbl>,
#   `rho (g/m**3)` <dbl>, `wv (m/s)` <dbl>, `max. wv (m/s)` <dbl>,
#   `wd (deg)` <dbl>
…
